# Onboard parameters for system MAV 002
#
# MAV ID  COMPONENT ID  PARAM NAME  VALUE (FLOAT)
2	50	ATT_ACC_COMP	1	6
2	50	ATT_MAG_DECL	                        0	9
2	50	BAT_CAPACITY	                     3400	9
2	50	BAT_C_SCALING	                   0.0124	9
2	50	BAT_N_CELLS	4	6
2	50	BAT_V_CHARGED	                      4.2	9
2	50	BAT_V_EMPTY	                      3.2	9
2	50	BAT_V_LOAD_DROP	                     0.07	9
2	50	BAT_V_SCALE_IO	10000	6
2	50	BAT_V_SCALING	                 0.007916	9
2	50	CBRK_AIRSPD_CHK	0	6
2	50	CBRK_IO_SAFETY	0	6
2	50	CBRK_NO_VISION	0	6
2	50	CBRK_RATE_CTRL	0	6
2	50	CBRK_SUPPLY_CHK	0	6
2	50	CHECK_CURRENT	                        0	9
2	50	CHECK_ON_OFF	                        1	9
2	50	COM_DL_LOSS_EN	0	6
2	50	EKF_ATT_V3_Q0	                   0.0001	9
2	50	EKF_ATT_V3_Q1	                     0.08	9
2	50	EKF_ATT_V3_Q2	                    0.009	9
2	50	EKF_ATT_V3_Q3	                    0.005	9
2	50	EKF_ATT_V3_Q4	                        0	9
2	50	EKF_ATT_V4_R0	                   0.0008	9
2	50	EKF_ATT_V4_R1	                    10000	9
2	50	EKF_ATT_V4_R2	                     1000	9
2	50	EKF_ATT_V4_R3	                        0	9
2	50	FIX_TIME_SHUT	                        0	9
2	50	FULL_MANUAL_EN	1	6
2	50	INAV_BARO_BETA	                      0.6	9
2	50	INAV_CAMERA_TILT	                    0.349	9
2	50	INAV_DELAY_GPS	                      0.2	9
2	50	INAV_DELAY_MEA	                        0	9
2	50	INAV_DIST_ERR	                      0.5	9
2	50	INAV_DIST_FILT	                     0.05	9
2	50	INAV_FLOW_K	                      0.5	9
2	50	INAV_FLOW_Q_MIN	                      0.5	9
2	50	INAV_GPS_OFFX	                        0	9
2	50	INAV_GPS_OFFY	                        0	9
2	50	INAV_GPS_OFFZ	                        0	9
2	50	INAV_IN_AIR_THR	                     0.28	9
2	50	INAV_LAND_DISP	                      0.7	9
2	50	INAV_LAND_T	                        2	9
2	50	INAV_LAND_THR	                      0.2	9
2	50	INAV_LASER_ERR	                      0.5	9
2	50	INAV_LASER_FILT	                     0.05	9
2	50	INAV_Q_ACC	                     0.09	9
2	50	INAV_Q_ACC_BIAS	                    1e-06	9
2	50	INAV_R_GPS_FLOW	                      0.1	9
2	50	INAV_R_XY_FLOW	                        5	9
2	50	INAV_R_XY_GPS_P	                        1	9
2	50	INAV_R_XY_GPS_V	                      0.1	9
2	50	INAV_R_XY_MEA_P	                      0.1	9
2	50	INAV_R_XY_MEA_V	                      0.1	9
2	50	INAV_R_XY_RES_V	                      0.5	9
2	50	INAV_R_XY_VIS_P	                        5	9
2	50	INAV_R_XY_VIS_V	                        0	9
2	50	INAV_R_Z_BARO	                     1000	9
2	50	INAV_R_Z_DIST	                      0.1	9
2	50	INAV_R_Z_DIST_V	                       10	9
2	50	INAV_R_Z_GPS_P	                        1	9
2	50	INAV_R_Z_GPS_V	                      0.2	9
2	50	INAV_R_Z_MEA_P	                     0.01	9
2	50	INAV_R_Z_MEA_V	                        1	9
2	50	INAV_R_Z_VIS_P	                      0.5	9
2	50	INAV_TAO_BARO	                        5	9
2	50	INAV_USE_BARO	1	6
2	50	INAV_USE_DIST	0	6
2	50	INAV_USE_DIST_V	1	6
2	50	INAV_USE_NUCZ	0	6
2	50	LAUN_ALL_ON	0	6
2	50	LAUN_CAT_A	                       30	9
2	50	LAUN_CAT_MDEL	                        0	9
2	50	LAUN_CAT_PMAX	                       30	9
2	50	LAUN_CAT_T	                     0.05	9
2	50	LAUN_THR_PRE	                        0	9
2	50	MAV_COMP_ID	50	6
2	50	MAV_SYS_ID	2	6
2	50	MAV_TYPE	2	6
2	50	MAV_USEHILGPS	0	6
2	50	MC_ACRO_P_MAX	                       90	9
2	50	MC_ACRO_R_MAX	                       90	9
2	50	MC_ACRO_Y_MAX	                      120	9
2	50	MC_MAN_P_MAX	                       35	9
2	50	MC_MAN_R_MAX	                       35	9
2	50	MC_MAN_Y_MAX	                      120	9
2	50	MC_PITCHRATE_D	                   1.4078	9
2	50	MC_PITCHRATE_I	                        0	9
2	50	MC_PITCHRATE_P	                  34.2581	9
2	50	MC_PITCH_I	                        0	9
2	50	MC_PITCH_P	                  216.025	9
2	50	MC_ROLLRATE_D	                   1.4078	9
2	50	MC_ROLLRATE_I	                        0	9
2	50	MC_ROLLRATE_P	                  34.2581	9
2	50	MC_ROLL_I	                        0	9
2	50	MC_ROLL_P	                  216.025	9
2	50	MC_YAWRATE_D	                        0	9
2	50	MC_YAWRATE_I	                        0	9
2	50	MC_YAWRATE_MAX	                      120	9
2	50	MC_YAWRATE_P	                   4.4751	9
2	50	MC_YAW_FF	                        1	9
2	50	MC_YAW_I	                       10	9
2	50	MC_YAW_P	                   9.5133	9
2	50	MPC_LAND_SPEED	                      0.5	9
2	50	MPC_MAN_MAX_INT	                     0.35	9
2	50	MPC_THR_MAX	                        1	9
2	50	MPC_THR_MIN	                        0	9
2	50	MPC_TILTMAX_AIR	                       45	9
2	50	MPC_TILTMAX_LND	                       15	9
2	50	MPC_XY_FF	                        0	9
2	50	MPC_XY_I	                   0.0252	9
2	50	MPC_XY_OFF_MAX	                        5	9
2	50	MPC_XY_P	                   0.0969	9
2	50	MPC_XY_VEL_D	                        0	9
2	50	MPC_XY_VEL_I	                        0	9
2	50	MPC_XY_VEL_MAX	                        5	9
2	50	MPC_XY_VEL_P	                   0.0886	9
2	50	MPC_Z_CTL_MAX	                     0.15	9
2	50	MPC_Z_FF	                      0.4	9
2	50	MPC_Z_I	                     0.05	9
2	50	MPC_Z_MAX	                       50	9
2	50	MPC_Z_OFF_MAX	                        2	9
2	50	MPC_Z_P	                   0.2344	9
2	50	MPC_Z_VEL_D	                        0	9
2	50	MPC_Z_VEL_I	                        0	9
2	50	MPC_Z_VEL_MAX	                        2	9
2	50	MPC_Z_VEL_P	                   0.1875	9
2	50	NAV_MAX_ACC_XY	                      1.5	9
2	50	NAV_MAX_ACC_YAW	                        2	9
2	50	NAV_MAX_ACC_Z	                      0.5	9
2	50	NAV_MAX_JERK	                      0.6	9
2	50	NAV_RMAX	                      0.4	9
2	50	NAV_ZMAX	                        2	9
2	50	NUC_ATT_CORR_Z	0	6
2	50	PRECHK_EN	1	6
2	50	RC10_DZ	                        0	9
2	50	RC10_MAX	                     2000	9
2	50	RC10_MIN	                     1000	9
2	50	RC10_REV	                       -1	9
2	50	RC10_TRIM	                     1500	9
2	50	RC11_DZ	                        0	9
2	50	RC11_MAX	                     2000	9
2	50	RC11_MIN	                     1000	9
2	50	RC11_REV	                       -1	9
2	50	RC11_TRIM	                     1500	9
2	50	RC12_DZ	                        0	9
2	50	RC12_MAX	                     2000	9
2	50	RC12_MIN	                     1000	9
2	50	RC12_REV	                       -1	9
2	50	RC12_TRIM	                     1500	9
2	50	RC13_DZ	                        0	9
2	50	RC13_MAX	                     2084	9
2	50	RC13_MIN	                      944	9
2	50	RC13_REV	                       -1	9
2	50	RC13_TRIM	                     1500	9
2	50	RC14_DZ	                        0	9
2	50	RC14_MAX	                     2084	9
2	50	RC14_MIN	                      944	9
2	50	RC14_REV	                       -1	9
2	50	RC14_TRIM	                     1500	9
2	50	RC15_DZ	                        0	9
2	50	RC15_MAX	                     2000	9
2	50	RC15_MIN	                     1000	9
2	50	RC15_REV	                       -1	9
2	50	RC15_TRIM	                     1500	9
2	50	RC16_DZ	                        0	9
2	50	RC16_MAX	                     2000	9
2	50	RC16_MIN	                     1000	9
2	50	RC16_REV	                       -1	9
2	50	RC16_TRIM	                     1500	9
2	50	RC17_DZ	                        0	9
2	50	RC17_MAX	                     1998	9
2	50	RC17_MIN	                      998	9
2	50	RC17_REV	                       -1	9
2	50	RC17_TRIM	                     1500	9
2	50	RC18_DZ	                        0	9
2	50	RC18_MAX	                     2000	9
2	50	RC18_MIN	                      998	9
2	50	RC18_REV	                       -1	9
2	50	RC18_TRIM	                     1500	9
2	50	RC1_DZ	                       10	9
2	50	RC1_MAX	                     1934	9
2	50	RC1_MIN	                     1094	9
2	50	RC1_REV	                        1	9
2	50	RC1_TRIM	                     1515	9
2	50	RC2_DZ	                       10	9
2	50	RC2_MAX	                     1934	9
2	50	RC2_MIN	                     1094	9
2	50	RC2_REV	                        1	9
2	50	RC2_TRIM	                     1525	9
2	50	RC3_DZ	                       10	9
2	50	RC3_MAX	                     1934	9
2	50	RC3_MIN	                     1094	9
2	50	RC3_REV	                       -1	9
2	50	RC3_TRIM	                     1934	9
2	50	RC4_DZ	                       10	9
2	50	RC4_MAX	                     1934	9
2	50	RC4_MIN	                     1094	9
2	50	RC4_REV	                        1	9
2	50	RC4_TRIM	                     1515	9
2	50	RC5_DZ	                       10	9
2	50	RC5_MAX	                     1934	9
2	50	RC5_MIN	                     1094	9
2	50	RC5_REV	                        1	9
2	50	RC5_TRIM	                     1514	9
2	50	RC6_DZ	                       10	9
2	50	RC6_MAX	                     1934	9
2	50	RC6_MIN	                     1094	9
2	50	RC6_REV	                        1	9
2	50	RC6_TRIM	                     1500	9
2	50	RC7_DZ	                       10	9
2	50	RC7_MAX	                     1934	9
2	50	RC7_MIN	                     1094	9
2	50	RC7_REV	                        1	9
2	50	RC7_TRIM	                     1500	9
2	50	RC8_DZ	                       10	9
2	50	RC8_MAX	                     1934	9
2	50	RC8_MIN	                     1094	9
2	50	RC8_REV	                        1	9
2	50	RC8_TRIM	                     1500	9
2	50	RC9_DZ	                        0	9
2	50	RC9_MAX	                     2000	9
2	50	RC9_MIN	                     1000	9
2	50	RC9_REV	                        1	9
2	50	RC9_TRIM	                     1500	9
2	50	RC_ACRO_TH	                      0.5	9
2	50	RC_ASSIST_TH	                     0.25	9
2	50	RC_AUTO_TH	                     0.75	9
2	50	RC_DSM_BIND	-1	6
2	50	RC_FAILS_THR	0	6
2	50	RC_FILTER	                        0	9
2	50	RC_LOITER_TH	                      0.5	9
2	50	RC_MAP_ACRO_SW	6	6
2	50	RC_MAP_AUX1	0	6
2	50	RC_MAP_AUX2	0	6
2	50	RC_MAP_AUX3	0	6
2	50	RC_MAP_AUX4	0	6
2	50	RC_MAP_AUX5	11	6
2	50	RC_MAP_FAILSAFE	0	6
2	50	RC_MAP_FLAPS	0	6
2	50	RC_MAP_LOITER_SW	0	6
2	50	RC_MAP_MODE_SW	5	6
2	50	RC_MAP_OFFB_SW	0	6
2	50	RC_MAP_PITCH	2	6
2	50	RC_MAP_POSCTL_SW	0	6
2	50	RC_MAP_RETURN_SW	0	6
2	50	RC_MAP_ROLL	1	6
2	50	RC_MAP_THROTTLE	3	6
2	50	RC_MAP_YAW	4	6
2	50	RC_OFFB_TH	                      0.5	9
2	50	RC_POSCTL_TH	                      0.5	9
2	50	RC_RETURN_TH	                      0.5	9
2	50	SDLOG_EXT	-1	6
2	50	SDLOG_RATE	-1	6
2	50	SYS_AUTOCONFIG	0	6
2	50	SYS_AUTOSTART	0	6
2	50	SYS_RESTART_TYPE	0	6
2	50	SYS_USE_IO	1	6
2	50	TEST_D	                     0.01	9
2	50	TEST_DEV	                        2	9
2	50	TEST_D_LP	                       10	9
2	50	TEST_HP	                       10	9
2	50	TEST_I	                      0.1	9
2	50	TEST_I_MAX	                        1	9
2	50	TEST_LP	                       10	9
2	50	TEST_MAX	                        1	9
2	50	TEST_MEAN	                        1	9
2	50	TEST_MIN	                       -1	9
2	50	TEST_P	                      0.2	9
2	50	TEST_TRIM	                      0.5	9
2	50	TRIM_PITCH	                        0	9
2	50	TRIM_ROLL	                        0	9
2	50	TRIM_YAW	                        0	9
2	50	TURF_CLUB	                        0	9
2	50	UAV_CM	                   1361.1	9
2	50	UAV_CT	                  18.7519	9
2	50	UAV_IX	                    0.029	9
2	50	UAV_IY	                   0.0195	9
2	50	UAV_IZ	                   0.0349	9
2	50	UAV_KQ1	               1.1744e-07	9
2	50	UAV_KQ2	               1.1744e-07	9
2	50	UAV_KT1	               7.4797e-06	9
2	50	UAV_KT2	               7.4797e-06	9
2	50	UAV_LM	                     0.19	9
2	50	UAV_MASS	                    2.431	9
2	50	UAV_TEMP	                       25	9
2	50	test	305419896	6
